// Jest Snapshot v1, https://goo.gl/fbAQLP

exports[`renders modal 1`] = `""`;

exports[`renders modal 2`] = `
<ContextProvider
  value={
    Object {
      "backdrop": "#c4Cad6",
      "background": "#f8f9fb",
      "black": "#232747",
      "black600": "#6D6F84",
      "card": Object {
        "iconsBar": Object {
          "background": "#0b0f32",
        },
      },
      "gray": "#dcdfee",
      "grayText": "#9d9fad",
      "primary": "#2622b5",
      "searchBar": Object {
        "radius": "10px",
      },
      "secondary": "#0c0980",
      "white": "#fff",
    }
  }
>
  <RecoilRoot>
    <Memo(Modal) />
  </RecoilRoot>
</ContextProvider>
`;
